src/build/module_teclado_hex_tb.vcd
$date
	Tue Apr 29 06:01:54 2025
$end
$version
	Icarus Verilog
$end
$timescale
	1ms
$end
$scope module module_teclado_hex_tb $end
$var wire 1 ! valido $end
$var wire 1 " s_row $end
$var wire 4 # row [3:0] $end
$var wire 4 $ col [3:0] $end
$var wire 4 % code_db [3:0] $end
$var wire 4 & code [3:0] $end
$var parameter 40 ' Key_0 $end
$var parameter 40 ( Key_1 $end
$var parameter 40 ) Key_10 $end
$var parameter 40 * Key_11 $end
$var parameter 40 + Key_12 $end
$var parameter 40 , Key_13 $end
$var parameter 40 - Key_14 $end
$var parameter 40 . Key_15 $end
$var parameter 40 / Key_2 $end
$var parameter 40 0 Key_3 $end
$var parameter 40 1 Key_4 $end
$var parameter 40 2 Key_5 $end
$var parameter 40 3 Key_6 $end
$var parameter 40 4 Key_7 $end
$var parameter 40 5 Key_8 $end
$var parameter 40 6 Key_9 $end
$var parameter 40 7 None $end
$var reg 1 8 clk $end
$var reg 16 9 key [15:0] $end
$var reg 40 : presionado [39:0] $end
$var reg 1 ; rst $end
$var integer 32 < j [31:0] $end
$var integer 32 = k [31:0] $end
$scope module M1 $end
$var wire 1 8 clk $end
$var wire 1 ; rst $end
$var wire 1 ! valido $end
$var wire 1 " s_row $end
$var wire 4 > row [3:0] $end
$var parameter 6 ? S_0 $end
$var parameter 6 @ S_1 $end
$var parameter 6 A S_2 $end
$var parameter 6 B S_3 $end
$var parameter 6 C S_4 $end
$var parameter 6 D S_5 $end
$var reg 4 E code [3:0] $end
$var reg 4 F col [3:0] $end
$var reg 6 G next_state [5:0] $end
$var reg 6 H state [5:0] $end
$upscope $end
$scope module M2 $end
$var wire 4 I col [3:0] $end
$var wire 16 J key [15:0] $end
$var reg 4 K row [3:0] $end
$upscope $end
$scope module M3 $end
$var wire 1 8 clk $end
$var wire 4 L row [3:0] $end
$var wire 1 ; rst $end
$var reg 1 M a_row $end
$var reg 1 " s_row $end
$upscope $end
$scope module db1 $end
$var wire 1 N Q2_bar $end
$var wire 1 8 clk $end
$var wire 1 O pb_1 $end
$var wire 1 P pb_out $end
$var wire 1 Q slow_clk_en $end
$var wire 1 R Q2 $end
$var wire 1 S Q1 $end
$var wire 1 T Q0 $end
$scope module d0 $end
$var wire 1 O D $end
$var wire 1 8 DFF_CLOCK $end
$var wire 1 Q clock_enable $end
$var reg 1 T Q $end
$upscope $end
$scope module d1 $end
$var wire 1 T D $end
$var wire 1 8 DFF_CLOCK $end
$var wire 1 Q clock_enable $end
$var reg 1 S Q $end
$upscope $end
$scope module d2 $end
$var wire 1 S D $end
$var wire 1 8 DFF_CLOCK $end
$var wire 1 Q clock_enable $end
$var reg 1 R Q $end
$upscope $end
$scope module u1 $end
$var wire 1 8 Clk_100M $end
$var wire 1 Q slow_clk_en $end
$var reg 27 U counter [26:0] $end
$upscope $end
$upscope $end
$scope module db2 $end
$var wire 1 V Q2_bar $end
$var wire 1 8 clk $end
$var wire 1 W pb_1 $end
$var wire 1 X pb_out $end
$var wire 1 Y slow_clk_en $end
$var wire 1 Z Q2 $end
$var wire 1 [ Q1 $end
$var wire 1 \ Q0 $end
$scope module d0 $end
$var wire 1 W D $end
$var wire 1 8 DFF_CLOCK $end
$var wire 1 Y clock_enable $end
$var reg 1 \ Q $end
$upscope $end
$scope module d1 $end
$var wire 1 \ D $end
$var wire 1 8 DFF_CLOCK $end
$var wire 1 Y clock_enable $end
$var reg 1 [ Q $end
$upscope $end
$scope module d2 $end
$var wire 1 [ D $end
$var wire 1 8 DFF_CLOCK $end
$var wire 1 Y clock_enable $end
$var reg 1 Z Q $end
$upscope $end
$scope module u1 $end
$var wire 1 8 Clk_100M $end
$var wire 1 Y slow_clk_en $end
$var reg 27 ] counter [26:0] $end
$upscope $end
$upscope $end
$scope module db3 $end
$var wire 1 ^ Q2_bar $end
$var wire 1 8 clk $end
$var wire 1 _ pb_1 $end
$var wire 1 ` pb_out $end
$var wire 1 a slow_clk_en $end
$var wire 1 b Q2 $end
$var wire 1 c Q1 $end
$var wire 1 d Q0 $end
$scope module d0 $end
$var wire 1 _ D $end
$var wire 1 8 DFF_CLOCK $end
$var wire 1 a clock_enable $end
$var reg 1 d Q $end
$upscope $end
$scope module d1 $end
$var wire 1 d D $end
$var wire 1 8 DFF_CLOCK $end
$var wire 1 a clock_enable $end
$var reg 1 c Q $end
$upscope $end
$scope module d2 $end
$var wire 1 c D $end
$var wire 1 8 DFF_CLOCK $end
$var wire 1 a clock_enable $end
$var reg 1 b Q $end
$upscope $end
$scope module u1 $end
$var wire 1 8 Clk_100M $end
$var wire 1 a slow_clk_en $end
$var reg 27 e counter [26:0] $end
$upscope $end
$upscope $end
$scope module db4 $end
$var wire 1 f Q2_bar $end
$var wire 1 8 clk $end
$var wire 1 g pb_1 $end
$var wire 1 h pb_out $end
$var wire 1 i slow_clk_en $end
$var wire 1 j Q2 $end
$var wire 1 k Q1 $end
$var wire 1 l Q0 $end
$scope module d0 $end
$var wire 1 g D $end
$var wire 1 8 DFF_CLOCK $end
$var wire 1 i clock_enable $end
$var reg 1 l Q $end
$upscope $end
$scope module d1 $end
$var wire 1 l D $end
$var wire 1 8 DFF_CLOCK $end
$var wire 1 i clock_enable $end
$var reg 1 k Q $end
$upscope $end
$scope module d2 $end
$var wire 1 k D $end
$var wire 1 8 DFF_CLOCK $end
$var wire 1 i clock_enable $end
$var reg 1 j Q $end
$upscope $end
$scope module u1 $end
$var wire 1 8 Clk_100M $end
$var wire 1 i slow_clk_en $end
$var reg 27 m counter [26:0] $end
$upscope $end
$upscope $end
$upscope $end
$enddefinitions $end
$comment Show the parameter values. $end
$dumpall
b100000 D
b10000 C
b1000 B
b100 A
b10 @
b1 ?
b1001110011011110110111001100101 7
b100101101100101011110010101111100111000 6
b100101101100101011110010101111100110111 5
b100101101100101011110010101111101000010 4
b100101101100101011110010101111100110110 3
b100101101100101011110010101111100110101 2
b100101101100101011110010101111100110100 1
b100101101100101011110010101111101000001 0
b100101101100101011110010101111100110011 /
b100101101100101011110010101111101000100 .
b100101101100101011110010101111100100011 -
b100101101100101011110010101111100110000 ,
b100101101100101011110010101111100101010 +
b100101101100101011110010101111101000011 *
b100101101100101011110010101111100111001 )
b100101101100101011110010101111100110010 (
b100101101100101011110010101111100110001 '
$end
#0
$dumpvars
b0 m
0l
0k
0j
0i
0h
0g
1f
b0 e
0d
0c
0b
0a
0`
0_
1^
b0 ]
0\
0[
0Z
0Y
0X
0W
1V
b0 U
0T
0S
0R
0Q
0P
0O
1N
0M
b0 L
b0 K
b0 J
b1111 I
b1 H
b1 G
b1111 F
b0 E
b0 >
b0 =
bx <
1;
b1001110011011110110111001100101 :
b0 9
08
b0 &
b0 %
b1111 $
b0 #
0"
0!
$end
#5
b1 U
b1 ]
b1 e
b1 m
18
#10
08
0;
#15
b10 m
b10 e
b10 ]
b10 U
18
#20
08
b0 <
#25
b11 U
b11 ]
b11 e
b11 m
18
#30
08
#35
b100 m
b100 e
b100 ]
b100 U
18
#40
1M
b1111 $
b1111 F
b1111 I
b1 #
b1 >
b1 K
b1 L
b100101101100101011110010101111100110001 :
08
b1 9
b1 J
#45
b101 U
b101 ]
b101 e
b101 m
18
#50
b10 G
b1111 $
b1111 F
b1111 I
1"
08
#55
1!
1O
b1 &
b1 E
b100000 G
b1 $
b1 F
b1 I
b10 H
b110 m
b110 e
b110 ]
b110 U
18
#60
08
#65
0!
0O
b0 &
b0 E
b1111 $
b1111 F
b1111 I
b100000 H
b111 U
b111 ]
b111 e
b111 m
18
#70
08
#75
b1000 m
b1000 e
b1000 ]
b1000 U
18
#80
08
#85
b1001 U
b1001 ]
b1001 e
b1001 m
18
#90
08
#95
1i
1a
1Y
1Q
b1010 m
b1010 e
b1010 ]
b1010 U
18
#100
0M
b1 G
b1111 $
b1111 F
b1111 I
b0 #
b0 >
b0 K
b0 L
b1001110011011110110111001100101 :
08
b1 <
b0 9
b0 J
#105
b10 G
b1111 $
b1111 F
b1111 I
0Q
0Y
0a
0i
b1 H
b0 U
b0 ]
b0 e
b0 m
18
#110
b1111 $
b1111 F
b1111 I
b1 G
0"
08
#115
b1 m
b1 e
b1 ]
b1 U
18
#120
1M
b1111 $
b1111 F
b1111 I
b1 #
b1 >
b1 K
b1 L
b100101101100101011110010101111100110010 :
08
b10 9
b10 J
#125
b10 U
b10 ]
b10 e
b10 m
18
#130
b10 G
b1111 $
b1111 F
b1111 I
1"
08
#135
b0 #
b0 >
b0 K
b0 L
b100 G
b1 $
b1 F
b1 I
b10 H
b11 m
b11 e
b11 ]
b11 U
18
#140
0M
08
#145
1!
1W
b10 &
b10 E
b1 #
b1 >
b1 K
b1 L
b100000 G
b10 $
b10 F
b10 I
b100 H
b100 U
b100 ]
b100 e
b100 m
18
#150
b10 $
b10 F
b10 I
b100000 G
0"
1M
08
#155
0!
0W
b0 &
b0 E
b1111 $
b1111 F
b1111 I
b100000 H
b101 m
b101 e
b101 ]
b101 U
18
#160
b1111 $
b1111 F
b1111 I
1"
08
#165
b110 U
b110 ]
b110 e
b110 m
18
#170
08
#175
b111 m
b111 e
b111 ]
b111 U
18
#180
0M
b1 G
b1111 $
b1111 F
b1111 I
b0 #
b0 >
b0 K
b0 L
b1001110011011110110111001100101 :
08
b10 <
b0 9
b0 J
#185
b10 G
b1111 $
b1111 F
b1111 I
b1 H
b1000 U
b1000 ]
b1000 e
b1000 m
18
#190
b1111 $
b1111 F
b1111 I
b1 G
0"
08
#195
b1001 m
b1001 e
b1001 ]
b1001 U
18
#200
1M
b1111 $
b1111 F
b1111 I
b1 #
b1 >
b1 K
b1 L
b100101101100101011110010101111100110011 :
08
b100 9
b100 J
#205
1Q
1Y
1a
1i
b1010 U
b1010 ]
b1010 e
b1010 m
18
#210
b10 G
b1111 $
b1111 F
b1111 I
1"
08
#215
b0 #
b0 >
b0 K
b0 L
b100 G
b1 $
b1 F
b1 I
0i
0a
0Y
0Q
b10 H
b0 m
b0 e
b0 ]
b0 U
18
#220
0M
08
#225
b1000 G
b10 $
b10 F
b10 I
b100 H
b1 U
b1 ]
b1 e
b1 m
18
#230
b10 $
b10 F
b10 I
b1000 G
0"
08
#235
1!
1W
1O
b11 &
b11 E
b1 #
b1 >
b1 K
b1 L
b100000 G
b100 $
b100 F
b100 I
b1000 H
b10 m
b10 e
b10 ]
b10 U
18
#240
1M
08
#245
0!
0W
0O
b0 &
b0 E
b1111 $
b1111 F
b1111 I
b100000 H
b11 U
b11 ]
b11 e
b11 m
18
#250
b1111 $
b1111 F
b1111 I
1"
08
#255
b100 m
b100 e
b100 ]
b100 U
18
#260
0M
b1 G
b1111 $
b1111 F
b1111 I
b0 #
b0 >
b0 K
b0 L
b1001110011011110110111001100101 :
08
b11 <
b0 9
b0 J
#265
b10 G
b1111 $
b1111 F
b1111 I
b1 H
b101 U
b101 ]
b101 e
b101 m
18
#270
b1111 $
b1111 F
b1111 I
b1 G
0"
08
#275
b110 m
b110 e
b110 ]
b110 U
18
#280
1M
b1111 $
b1111 F
b1111 I
b1 #
b1 >
b1 K
b1 L
b100101101100101011110010101111101000001 :
08
b1000 9
b1000 J
#285
b111 U
b111 ]
b111 e
b111 m
18
#290
b10 G
b1111 $
b1111 F
b1111 I
1"
08
#295
b0 #
b0 >
b0 K
b0 L
b100 G
b1 $
b1 F
b1 I
b10 H
b1000 m
b1000 e
b1000 ]
b1000 U
18
#300
0M
08
#305
b1000 G
b10 $
b10 F
b10 I
b100 H
b1001 U
b1001 ]
b1001 e
b1001 m
18
#310
b10 $
b10 F
b10 I
b1000 G
0"
08
#315
b10000 G
b100 $
b100 F
b100 I
1i
1a
1Y
1Q
b1000 H
b1010 m
b1010 e
b1010 ]
b1010 U
18
#320
08
#325
1!
1g
1W
b1010 &
b1010 E
b1 #
b1 >
b1 K
b1 L
b100000 G
b1000 $
b1000 F
b1000 I
0Q
0Y
0a
0i
b10000 H
b0 U
b0 ]
b0 e
b0 m
18
#330
1M
08
#335
0g
0W
0!
b0 &
b0 E
b1111 $
b1111 F
b1111 I
b100000 H
b1 m
b1 e
b1 ]
b1 U
18
#340
1"
0M
b1 G
b1111 $
b1111 F
b1111 I
b0 #
b0 >
b0 K
b0 L
b1001110011011110110111001100101 :
08
b100 <
b0 9
b0 J
#345
b10 G
b1111 $
b1111 F
b1111 I
b1 H
b10 U
b10 ]
b10 e
b10 m
18
#350
b1111 $
b1111 F
b1111 I
b1 G
0"
08
#355
b11 m
b11 e
b11 ]
b11 U
18
#360
1M
b1111 $
b1111 F
b1111 I
b10 #
b10 >
b10 K
b10 L
b100101101100101011110010101111100110100 :
08
b10000 9
b10000 J
#365
b100 U
b100 ]
b100 e
b100 m
18
#370
b10 G
b1111 $
b1111 F
b1111 I
1"
08
#375
1_
b100 &
b100 E
b100000 G
b1 $
b1 F
b1 I
b10 H
b101 m
b101 e
b101 ]
b101 U
18
#380
08
#385
0_
b0 &
b0 E
b1111 $
b1111 F
b1111 I
b100000 H
b110 U
b110 ]
b110 e
b110 m
18
#390
08
#395
b111 m
b111 e
b111 ]
b111 U
18
#400
08
#405
b1000 U
b1000 ]
b1000 e
b1000 m
18
#410
08
#415
b1001 m
b1001 e
b1001 ]
b1001 U
18
#420
0M
b1 G
b1111 $
b1111 F
b1111 I
b0 #
b0 >
b0 K
b0 L
b1001110011011110110111001100101 :
08
b101 <
b0 9
b0 J
#425
b10 G
b1111 $
b1111 F
b1111 I
1Q
1Y
1a
1i
b1 H
b1010 U
b1010 ]
b1010 e
b1010 m
18
#430
b1111 $
b1111 F
b1111 I
b1 G
0"
08
#435
0i
0a
0Y
0Q
b0 m
b0 e
b0 ]
b0 U
18
#440
1M
b1111 $
b1111 F
b1111 I
b10 #
b10 >
b10 K
b10 L
b100101101100101011110010101111100110101 :
08
b100000 9
b100000 J
#445
b1 U
b1 ]
b1 e
b1 m
18
#450
b10 G
b1111 $
b1111 F
b1111 I
1"
08
#455
b0 #
b0 >
b0 K
b0 L
b100 G
b1 $
b1 F
b1 I
b10 H
b10 m
b10 e
b10 ]
b10 U
18
#460
0M
08
#465
1_
1O
b101 &
b101 E
b10 #
b10 >
b10 K
b10 L
b100000 G
b10 $
b10 F
b10 I
b100 H
b11 U
b11 ]
b11 e
b11 m
18
#470
b10 $
b10 F
b10 I
b100000 G
0"
1M
08
#475
0_
0O
b0 &
b0 E
b1111 $
b1111 F
b1111 I
b100000 H
b100 m
b100 e
b100 ]
b100 U
18
#480
b1111 $
b1111 F
b1111 I
1"
08
#485
b101 U
b101 ]
b101 e
b101 m
18
#490
08
#495
b110 m
b110 e
b110 ]
b110 U
18
#500
0M
b1 G
b1111 $
b1111 F
b1111 I
b0 #
b0 >
b0 K
b0 L
b1001110011011110110111001100101 :
08
b110 <
b0 9
b0 J
#505
b10 G
b1111 $
b1111 F
b1111 I
b1 H
b111 U
b111 ]
b111 e
b111 m
18
#510
b1111 $
b1111 F
b1111 I
b1 G
0"
08
#515
b1000 m
b1000 e
b1000 ]
b1000 U
18
#520
1M
b1111 $
b1111 F
b1111 I
b10 #
b10 >
b10 K
b10 L
b100101101100101011110010101111100110110 :
08
b1000000 9
b1000000 J
#525
b1001 U
b1001 ]
b1001 e
b1001 m
18
#530
b10 G
b1111 $
b1111 F
b1111 I
1"
08
#535
b0 #
b0 >
b0 K
b0 L
b100 G
b1 $
b1 F
b1 I
1i
1a
1Y
1Q
b10 H
b1010 m
b1010 e
b1010 ]
b1010 U
18
#540
0M
08
#545
b1000 G
b10 $
b10 F
b10 I
0Q
0Y
0a
0i
b100 H
b0 U
b0 ]
b0 e
b0 m
18
#550
b10 $
b10 F
b10 I
b1000 G
0"
08
#555
1_
1W
b110 &
b110 E
b10 #
b10 >
b10 K
b10 L
b100000 G
b100 $
b100 F
b100 I
b1000 H
b1 m
b1 e
b1 ]
b1 U
18
#560
1M
08
#565
0_
0W
b0 &
b0 E
b1111 $
b1111 F
b1111 I
b100000 H
b10 U
b10 ]
b10 e
b10 m
18
#570
b1111 $
b1111 F
b1111 I
1"
08
#575
b11 m
b11 e
b11 ]
b11 U
18
#580
0M
b1 G
b1111 $
b1111 F
b1111 I
b0 #
b0 >
b0 K
b0 L
b1001110011011110110111001100101 :
08
b111 <
b0 9
b0 J
#585
b10 G
b1111 $
b1111 F
b1111 I
b1 H
b100 U
b100 ]
b100 e
b100 m
18
#590
b1111 $
b1111 F
b1111 I
b1 G
0"
08
#595
b101 m
b101 e
b101 ]
b101 U
18
#600
1M
b1111 $
b1111 F
b1111 I
b10 #
b10 >
b10 K
b10 L
b100101101100101011110010101111101000010 :
08
b10000000 9
b10000000 J
#605
b110 U
b110 ]
b110 e
b110 m
18
#610
b10 G
b1111 $
b1111 F
b1111 I
1"
08
#615
b0 #
b0 >
b0 K
b0 L
b100 G
b1 $
b1 F
b1 I
b10 H
b111 m
b111 e
b111 ]
b111 U
18
#620
0M
08
#625
b1000 G
b10 $
b10 F
b10 I
b100 H
b1000 U
b1000 ]
b1000 e
b1000 m
18
#630
b10 $
b10 F
b10 I
b1000 G
0"
08
#635
b10000 G
b100 $
b100 F
b100 I
b1000 H
b1001 m
b1001 e
b1001 ]
b1001 U
18
#640
08
#645
1g
1W
1O
b1011 &
b1011 E
b10 #
b10 >
b10 K
b10 L
b100000 G
b1000 $
b1000 F
b1000 I
1Q
1Y
1a
1i
b10000 H
b1010 U
b1010 ]
b1010 e
b1010 m
18
#650
1M
08
#655
0g
0W
0O
b0 &
b0 E
b1111 $
b1111 F
b1111 I
0i
0a
0Y
0Q
b100000 H
1l
b0 m
b0 e
1\
b0 ]
1T
b0 U
18
#660
1"
0M
b1 G
b1111 $
b1111 F
b1111 I
b0 #
b0 >
b0 K
b0 L
b1001110011011110110111001100101 :
08
b1000 <
b0 9
b0 J
#665
b10 G
b1111 $
b1111 F
b1111 I
b1 H
b1 U
b1 ]
b1 e
b1 m
18
#670
b1111 $
b1111 F
b1111 I
b1 G
0"
08
#675
b10 m
b10 e
b10 ]
b10 U
18
#680
1M
b1111 $
b1111 F
b1111 I
b100 #
b100 >
b100 K
b100 L
b100101101100101011110010101111100110111 :
08
b100000000 9
b100000000 J
#685
b11 U
b11 ]
b11 e
b11 m
18
#690
b10 G
b1111 $
b1111 F
b1111 I
1"
08
#695
1_
1W
1O
b111 &
b111 E
b100000 G
b1 $
b1 F
b1 I
b10 H
b100 m
b100 e
b100 ]
b100 U
18
#700
08
#705
0_
0W
0O
b0 &
b0 E
b1111 $
b1111 F
b1111 I
b100000 H
b101 U
b101 ]
b101 e
b101 m
18
#710
08
#715
b110 m
b110 e
b110 ]
b110 U
18
#720
08
#725
b111 U
b111 ]
b111 e
b111 m
18
#730
08
#735
b1000 m
b1000 e
b1000 ]
b1000 U
18
#740
0M
b1 G
b1111 $
b1111 F
b1111 I
b0 #
b0 >
b0 K
b0 L
b1001110011011110110111001100101 :
08
b1001 <
b0 9
b0 J
#745
b10 G
b1111 $
b1111 F
b1111 I
b1 H
b1001 U
b1001 ]
b1001 e
b1001 m
18
#750
b1111 $
b1111 F
b1111 I
b1 G
0"
08
#755
1i
1a
1Y
1Q
b1010 m
b1010 e
b1010 ]
b1010 U
18
#760
1M
b1111 $
b1111 F
b1111 I
b100 #
b100 >
b100 K
b100 L
b100101101100101011110010101111100111000 :
08
b1000000000 9
b1000000000 J
#765
0Q
1P
0Y
1X
0a
0i
b1011 %
1h
b0 U
0T
1S
b0 ]
0\
1[
b0 e
b0 m
0l
1k
18
#770
b10 G
b1111 $
b1111 F
b1111 I
1"
08
#775
b0 #
b0 >
b0 K
b0 L
b100 G
b1 $
b1 F
b1 I
b10 H
b1 m
b1 e
b1 ]
b1 U
18
#780
0M
08
#785
1g
b1000 &
b1000 E
b100 #
b100 >
b100 K
b100 L
b100000 G
b10 $
b10 F
b10 I
b100 H
b10 U
b10 ]
b10 e
b10 m
18
#790
b10 $
b10 F
b10 I
b100000 G
0"
1M
08
#795
0g
b0 &
b0 E
b1111 $
b1111 F
b1111 I
b100000 H
b11 m
b11 e
b11 ]
b11 U
18
#800
b1111 $
b1111 F
b1111 I
1"
08
#805
b100 U
b100 ]
b100 e
b100 m
18
#810
08
#815
b101 m
b101 e
b101 ]
b101 U
18
#820
0M
b1 G
b1111 $
b1111 F
b1111 I
b0 #
b0 >
b0 K
b0 L
b1001110011011110110111001100101 :
08
b1010 <
b0 9
b0 J
#825
b10 G
b1111 $
b1111 F
b1111 I
b1 H
b110 U
b110 ]
b110 e
b110 m
18
#830
b1111 $
b1111 F
b1111 I
b1 G
0"
08
#835
b111 m
b111 e
b111 ]
b111 U
18
#840
1M
b1111 $
b1111 F
b1111 I
b100 #
b100 >
b100 K
b100 L
b100101101100101011110010101111100111001 :
08
b10000000000 9
b10000000000 J
#845
b1000 U
b1000 ]
b1000 e
b1000 m
18
#850
b10 G
b1111 $
b1111 F
b1111 I
1"
08
#855
b0 #
b0 >
b0 K
b0 L
b100 G
b1 $
b1 F
b1 I
b10 H
b1001 m
b1001 e
b1001 ]
b1001 U
18
#860
0M
08
#865
b1000 G
b10 $
b10 F
b10 I
1Q
1Y
1a
1i
b100 H
b1010 U
b1010 ]
b1010 e
b1010 m
18
#870
b10 $
b10 F
b10 I
b1000 G
0"
08
#875
1g
1O
b1001 &
b1001 E
b100 #
b100 >
b100 K
b100 L
b100000 G
b100 $
b100 F
b100 I
0f
0h
0i
0a
0V
0X
0Y
0N
b0 %
0P
0Q
b1000 H
1j
0k
b0 m
b0 e
1Z
0[
b0 ]
1R
0S
b0 U
18
#880
1M
08
#885
0g
0O
b0 &
b0 E
b1111 $
b1111 F
b1111 I
b100000 H
b1 U
b1 ]
b1 e
b1 m
18
#890
b1111 $
b1111 F
b1111 I
1"
08
#895
b10 m
b10 e
b10 ]
b10 U
18
#900
0M
b1 G
b1111 $
b1111 F
b1111 I
b0 #
b0 >
b0 K
b0 L
b1001110011011110110111001100101 :
08
b1011 <
b0 9
b0 J
#905
b10 G
b1111 $
b1111 F
b1111 I
b1 H
b11 U
b11 ]
b11 e
b11 m
18
#910
b1111 $
b1111 F
b1111 I
b1 G
0"
08
#915
b100 m
b100 e
b100 ]
b100 U
18
#920
1M
b1111 $
b1111 F
b1111 I
b100 #
b100 >
b100 K
b100 L
b100101101100101011110010101111101000011 :
08
b100000000000 9
b100000000000 J
#925
b101 U
b101 ]
b101 e
b101 m
18
#930
b10 G
b1111 $
b1111 F
b1111 I
1"
08
#935
b0 #
b0 >
b0 K
b0 L
b100 G
b1 $
b1 F
b1 I
b10 H
b110 m
b110 e
b110 ]
b110 U
18
#940
0M
08
#945
b1000 G
b10 $
b10 F
b10 I
b100 H
b111 U
b111 ]
b111 e
b111 m
18
#950
b10 $
b10 F
b10 I
b1000 G
0"
08
#955
b10000 G
b100 $
b100 F
b100 I
b1000 H
b1000 m
b1000 e
b1000 ]
b1000 U
18
#960
08
#965
1g
1_
b1100 &
b1100 E
b100 #
b100 >
b100 K
b100 L
b100000 G
b1000 $
b1000 F
b1000 I
b10000 H
b1001 U
b1001 ]
b1001 e
b1001 m
18
#970
1M
08
#975
0g
0_
b0 &
b0 E
b1111 $
b1111 F
b1111 I
1i
1a
1Y
1Q
b100000 H
b1010 m
b1010 e
b1010 ]
b1010 U
18
#980
1"
0M
b1 G
b1111 $
b1111 F
b1111 I
b0 #
b0 >
b0 K
b0 L
b1001110011011110110111001100101 :
08
b1100 <
b0 9
b0 J
#985
b10 G
b1111 $
b1111 F
b1111 I
0Q
1N
0Y
1V
0a
0i
1f
b1 H
b0 U
0R
b0 ]
0Z
b0 e
b0 m
0j
18
#990
b1111 $
b1111 F
b1111 I
b1 G
0"
08
#995
b1 m
b1 e
b1 ]
b1 U
18
#1000
1M
b1111 $
b1111 F
b1111 I
b1000 #
b1000 >
b1000 K
b1000 L
b100101101100101011110010101111100101010 :
08
b1000000000000 9
b1000000000000 J
#1005
b10 U
b10 ]
b10 e
b10 m
18
#1010
b10 G
b1111 $
b1111 F
b1111 I
1"
08
#1015
xg
x_
xW
xO
bx &
bx E
b100000 G
b1 $
b1 F
b1 I
b10 H
b11 m
b11 e
b11 ]
b11 U
18
#1020
08
#1025
0g
0_
0W
0O
b0 &
b0 E
b1111 $
b1111 F
b1111 I
b100000 H
b100 U
b100 ]
b100 e
b100 m
18
#1030
08
#1035
b101 m
b101 e
b101 ]
b101 U
18
#1040
08
#1045
b110 U
b110 ]
b110 e
b110 m
18
#1050
08
#1055
b111 m
b111 e
b111 ]
b111 U
18
#1060
0M
b1 G
b1111 $
b1111 F
b1111 I
b0 #
b0 >
b0 K
b0 L
b1001110011011110110111001100101 :
08
b1101 <
b0 9
b0 J
#1065
b10 G
b1111 $
b1111 F
b1111 I
b1 H
b1000 U
b1000 ]
b1000 e
b1000 m
18
#1070
b1111 $
b1111 F
b1111 I
b1 G
0"
08
#1075
b1001 m
b1001 e
b1001 ]
b1001 U
18
#1080
1M
b1111 $
b1111 F
b1111 I
b1000 #
b1000 >
b1000 K
b1000 L
b100101101100101011110010101111100110000 :
08
b10000000000000 9
b10000000000000 J
#1085
1Q
1Y
1a
1i
b1010 U
b1010 ]
b1010 e
b1010 m
18
#1090
b10 G
b1111 $
b1111 F
b1111 I
1"
08
#1095
b0 #
b0 >
b0 K
b0 L
b100 G
b1 $
b1 F
b1 I
0i
0a
0Y
0Q
b10 H
b0 m
b0 e
b0 ]
b0 U
18
#1100
0M
08
#1105
b1000 #
b1000 >
b1000 K
b1000 L
b100000 G
b10 $
b10 F
b10 I
b100 H
b1 U
b1 ]
b1 e
b1 m
18
#1110
b10 $
b10 F
b10 I
b100000 G
0"
1M
08
#1115
b1111 $
b1111 F
b1111 I
b100000 H
b10 m
b10 e
b10 ]
b10 U
18
#1120
b1111 $
b1111 F
b1111 I
1"
08
#1125
b11 U
b11 ]
b11 e
b11 m
18
#1130
08
#1135
b100 m
b100 e
b100 ]
b100 U
18
#1140
0M
b1 G
b1111 $
b1111 F
b1111 I
b0 #
b0 >
b0 K
b0 L
b1001110011011110110111001100101 :
08
b1110 <
b0 9
b0 J
#1145
b10 G
b1111 $
b1111 F
b1111 I
b1 H
b101 U
b101 ]
b101 e
b101 m
18
#1150
b1111 $
b1111 F
b1111 I
b1 G
0"
08
#1155
b110 m
b110 e
b110 ]
b110 U
18
#1160
1M
b1111 $
b1111 F
b1111 I
b1000 #
b1000 >
b1000 K
b1000 L
b100101101100101011110010101111100100011 :
08
b100000000000000 9
b100000000000000 J
#1165
b111 U
b111 ]
b111 e
b111 m
18
#1170
b10 G
b1111 $
b1111 F
b1111 I
1"
08
#1175
b0 #
b0 >
b0 K
b0 L
b100 G
b1 $
b1 F
b1 I
b10 H
b1000 m
b1000 e
b1000 ]
b1000 U
18
#1180
0M
08
#1185
b1000 G
b10 $
b10 F
b10 I
b100 H
b1001 U
b1001 ]
b1001 e
b1001 m
18
#1190
b10 $
b10 F
b10 I
b1000 G
0"
08
#1195
xg
x_
xW
xO
bx &
bx E
b1000 #
b1000 >
b1000 K
b1000 L
b100000 G
b100 $
b100 F
b100 I
1i
1a
1Y
1Q
b1000 H
b1010 m
b1010 e
b1010 ]
b1010 U
18
#1200
1M
08
#1205
0g
0_
0W
0O
b0 &
b0 E
b1111 $
b1111 F
b1111 I
0Q
0Y
0a
0i
b100000 H
b0 U
xT
b0 ]
x\
b0 e
xd
b0 m
xl
18
#1210
b1111 $
b1111 F
b1111 I
1"
08
#1215
b1 m
b1 e
b1 ]
b1 U
18
#1220
0M
b1 G
b1111 $
b1111 F
b1111 I
b0 #
b0 >
b0 K
b0 L
b1001110011011110110111001100101 :
08
b1111 <
b0 9
b0 J
#1225
b10 G
b1111 $
b1111 F
b1111 I
b1 H
b10 U
b10 ]
b10 e
b10 m
18
#1230
b1111 $
b1111 F
b1111 I
b1 G
0"
08
#1235
b11 m
b11 e
b11 ]
b11 U
18
#1240
1M
b1111 $
b1111 F
b1111 I
b1000 #
b1000 >
b1000 K
b1000 L
b100101101100101011110010101111101000100 :
08
b1000000000000000 9
b1000000000000000 J
#1245
b100 U
b100 ]
b100 e
b100 m
18
#1250
b10 G
b1111 $
b1111 F
b1111 I
1"
08
#1255
b0 #
b0 >
b0 K
b0 L
b100 G
b1 $
b1 F
b1 I
b10 H
b101 m
b101 e
b101 ]
b101 U
18
#1260
0M
08
#1265
b1000 G
b10 $
b10 F
b10 I
b100 H
b110 U
b110 ]
b110 e
b110 m
18
#1270
b10 $
b10 F
b10 I
b1000 G
0"
08
#1275
b10000 G
b100 $
b100 F
b100 I
b1000 H
b111 m
b111 e
b111 ]
b111 U
18
#1280
08
#1285
1g
1_
1O
b1101 &
b1101 E
b1000 #
b1000 >
b1000 K
b1000 L
b100000 G
b1000 $
b1000 F
b1000 I
b10000 H
b1000 U
b1000 ]
b1000 e
b1000 m
18
#1290
1M
08
#1295
0g
0_
0O
b0 &
b0 E
b1111 $
b1111 F
b1111 I
b100000 H
b1001 m
b1001 e
b1001 ]
b1001 U
18
#1300
1"
0M
b1 G
b1111 $
b1111 F
b1111 I
b0 #
b0 >
b0 K
b0 L
b1001110011011110110111001100101 :
08
b10000 <
b0 9
b0 J
#1305
b10 G
b1111 $
b1111 F
b1111 I
1Q
1Y
1a
1i
b1 H
b1010 U
b1010 ]
b1010 e
b1010 m
18
#1310
b1111 $
b1111 F
b1111 I
b1 G
0"
08
#1315
xh
0i
x`
0a
xX
0Y
bx %
xP
0Q
xk
0l
b0 m
xc
0d
b0 e
x[
0\
b0 ]
xS
0T
b0 U
18
#1320
08
#1325
b1 U
b1 ]
b1 e
b1 m
18
#1330
08
#1335
b10 m
b10 e
b10 ]
b10 U
18
#1340
08
#1345
b11 U
b11 ]
b11 e
b11 m
18
#1350
08
